Kategoria filmu;Liczba filmow;Kategoria filmu;Liczba filmow
Drama;21;Adventure, Comedy, Sci-Fi;1
Crime, Drama;15;Drama, Music;1
Biography, Drama, History;10;Action, Adventure, Drama;1
Crime, Drama, Thriller;9;Animation, Adventure, Drama;1
Crime, Drama, Mystery;8;Horror, Sci-Fi;1
Drama, War;8;Drama, Film-Noir;1
Animation, Adventure, Comedy;7;Comedy, War;1
Drama, Romance;5;Animation, Drama, War;1
Action, Adventure, Fantasy;5;Drama, Horror;1
Adventure, Drama, Fantasy;4;Action, Drama, Mystery;1
Action, Adventure, Sci-Fi;4;Mystery, Romance, Thriller;1
Comedy, Romance;4;Adventure, Mystery, Thriller;1
Comedy, Drama;4;Animation, Drama, Fantasy;1
Action, Crime, Drama;3;Crime, Drama, Sci-Fi;1
Western;3;Drama, Romance, Sci-Fi;1
Biography, Crime, Drama;3;Comedy, Musical, Romance;1
Action, Sci-Fi;3;Adventure, Sci-Fi;1
Animation, Adventure, Family;3;Adventure, Comedy, Fantasy;1
Mystery, Thriller;3;Comedy, Drama, Romance;1
Drama, Thriller;3;Action, Drama, Thriller;1
Adventure, Drama, Thriller;3;Adventure, Drama, Western;1
Comedy, Crime;3;Biography, Drama, Sport;1
Adventure, Drama, History;3;Film-Noir, Mystery, Thriller;1
Biography, Drama;3;Drama, Fantasy, War;1
Drama, Sport;3;Drama, Mystery, War;1
Adventure, Drama;2;Action, Drama;1
Comedy, Drama, War;2;Drama, Fantasy;1
Drama, Romance, War;2;Biography, Comedy, Crime;1
Comedy, Drama, Family;2;Sci-Fi, Thriller;1
Action, Adventure;2;Action, Adventure, Comedy;1
Drama, Mystery, Sci-Fi;2;Action, Comedy, Romance;1
Drama, Western;2;Crime, Film-Noir, Thriller;1
Animation, Adventure, Fantasy;2;Drama, History, Romance;1
Action, Thriller;2;Horror, Mystery, Sci-Fi;1
Drama, Mystery;2;Action, Crime, Thriller;1
Action, Biography, Drama;2;Animation, Comedy, Drama;1
Drama, Family;2;Animation, Action, Adventure;1
Adventure, Biography, Drama;2;Comedy, Drama, Thriller;1
Crime, Drama, Film-Noir;2;Comedy;1
Adventure, Drama, War;2;Adventure, Comedy, Drama;1
Drama, Sci-Fi;2;Adventure, Sci-Fi, Thriller;1
Drama, Mystery, Thriller;2;Comedy, Drama, Sci-Fi;1
Animation, Family, Fantasy;2;Crime, Drama, History;1
Drama, Mystery, Romance;2;Comedy, Drama, Music;1
Action, Drama, Sci-Fi;2;Film-Noir, Mystery;1
Adventure, Family, Fantasy;2;Drama, History;1
Drama, Family, Fantasy;1;Crime, Drama, Horror;1
Crime, Mystery, Thriller;1;Drama, Sci-Fi, Thriller;1
Adventure, Drama, Sci-Fi;1;Comedy, Crime, Drama;1
Horror, Mystery, Thriller;1;Comedy, Fantasy, Romance;1
Biography, Comedy, Drama;1;Action, Mystery, Thriller;1
Biography, Drama, Music;1;Mystery, Sci-Fi, Thriller;1
