Kategoria filmu;Liczba filmow
drama;178
crime;55
adventure;55
comedy;42
thriller;36
action;33
mystery;31
scifi;25
biography;24
fantasy;23
romance;22
animation;19
war;18
history;16
family;13
western;6
filmnoir;6
horror;5
sport;4
music;3
musical;1
